cl__1 = 0.2;
Point(1) = {0, 0, 0, 1};
Point(2) = {1, 0, 0, 1};
Point(3) = {1, 1, 0, 1};
Point(4) = {0, 1, 0, 1};
Point(5) = {0.5, 0.5, 0, 1};
Point(6) = {0.45, 0.5, 0, 1};
Line(1) = {1, 2};
Line(2) = {2, 3};
Line(3) = {3, 4};
Line(4) = {4, 1};
Circle(5) = {6, 5, 6};
Line Loop(6) = {3, 4, 1, 2};
Line Loop(7) = {5};
Plane Surface(8) = {6, 7};
Physical Surface(10) = {8};
// Plane Surface(9) = {7};
// Physical Surface(11) = {9};
